DFF/result/dump.vcd
$date
Fri Dec 29 11:40:59 2023
$end
$version
Riviera-PRO Version 2022.04.117.8517
$end
$timescale
1 ns
$end

$scope module tb_top $end

$scope module vif $end
$var reg 1 ! clk $end
$var reg 1 " rst $end
$var reg 1 # din $end
$var reg 1 $ q $end
$upscope $end


$scope module DUT $end
$var wire 1 % clk $end
$var wire 1 & rst $end
$var wire 1 ' din $end
$var reg 1 ( q $end
$upscope $end

$upscope $end

$enddefinitions $end
$dumpvars
0!
1"
0#
x$
0%
1&
0'
x(
$end
#5
1!
1%
0(
0$
#10
0!
0%
#15
1!
1%
#20
0!
0%
#25
1!
1%
#30
0!
0%
#35
1!
1%
#40
0!
0%
#45
1!
1%
#50
0!
0%
#55
1!
1%
0"
0&
1#
1'
#60
0!
0%
#65
1!
1%
1(
1$
#70
0!
0%
#75
1!
1%
#80
0!
0%
#85
1!
1%
#90
0!
0%
#95
1!
1%
0#
0'
#100
0!
0%
#105
1!
1%
0(
0$
#110
0!
0%
#115
1!
1%
#120
0!
0%
#125
1!
1%
#130
0!
0%
#135
1!
1%
#140
0!
0%
#145
1!
1%
#150
0!
0%
#155
1!
1%
1#
1'
#160
0!
0%
#165
1!
1%
1(
1$
#170
0!
0%
#175
1!
1%
#180
0!
0%
#185
1!
1%
#190
0!
0%
#195
1!
1%
#200
0!
0%
#205
1!
1%
#210
0!
0%
#215
1!
1%
0#
0'
#220
0!
0%
#225
1!
1%
0(
0$
#230
0!
0%
#235
1!
1%
1#
1'
#240
0!
0%
#245
1!
1%
1(
1$
#250
0!
0%
#255
1!
1%
0#
0'
#260
0!
0%
#265
1!
1%
0(
0$
#270
0!
0%
#275
1!
1%
1#
1'
#280
0!
0%
#285
1!
1%
1(
1$
#290
0!
0%
#295
1!
1%
#300
0!
0%
#305
1!
1%
#310
0!
0%
#315
1!
1%
#320
0!
0%
#325
1!
1%
#330
0!
0%
#335
1!
1%
0#
0'
#340
0!
0%
#345
1!
1%
0(
0$
#350
0!
0%
#355
1!
1%
#360
0!
0%
#365
1!
1%
#370
0!
0%
#375
1!
1%
#380
0!
0%
#385
1!
1%
#390
0!
0%
#395
1!
1%
1#
1'
#400
0!
0%
#405
1!
1%
1(
1$
