Wishbone_memory/result/dump.vcd
$date
Wed Jan 31 11:40:56 2024
$end
$version
Riviera-PRO Version 2022.04.117.8517
$end
$timescale
1 ps
$end

$scope module tb $end
$var event 1 ! drvnext $end
$var event 1 " sconext $end
$var event 1 # done $end

$scope module vif $end
$var reg 1 $ clk $end
$var reg 1 % we $end
$var reg 1 & strb $end
$var reg 1 ' rst $end
$var reg 8 ( addr [7:0] $end
$var reg 8 ) wdata [7:0] $end
$var reg 8 * rdata [7:0] $end
$var reg 1 + ack $end
$upscope $end


$scope module dut $end
$var wire 1 , clk $end
$var wire 1 - we $end
$var wire 1 . strb $end
$var wire 1 / rst $end
$var wire 8 0 addr [7:0] $end
$var wire 8 1 wdata [7:0] $end
$var reg 8 2 rdata [7:0] $end
$var reg 1 3 ack $end
$var reg 8 4 temp [7:0] $end
$var reg 2 5 state $end
$var reg 2 6 next_state $end
$upscope $end


$scope task @FORK#307_0@ $end
$upscope $end


$scope task @FORK#308_1@ $end
$upscope $end


$scope task @FORK#309_2@ $end
$upscope $end


$scope task @FORK#310_3@ $end
$upscope $end

$upscope $end

$enddefinitions $end
$dumpvars
0$
0%
0&
1'
b0 (
b0 )
b0 *
0+
0,
0-
0.
1/
b0 0
b0 1
b0 2
03
bx 4
b0 5
b1 6
$end
#5000
1$
1,
#10000
0$
0,
#15000
1$
1,
#20000
0$
0,
#25000
1$
1,
#30000
0$
0,
#35000
1$
1,
#40000
0$
0,
#45000
1$
1,
#50000
0$
0,
#55000
1$
1,
#60000
0$
0,
#65000
1$
1,
#70000
0$
0,
#75000
1$
1,
#80000
0$
0,
#85000
1$
1,
#90000
0$
0,
#95000
1$
1,
0'
0/
#100000
0$
0,
#105000
1$
1,
b1 5
#110000
0$
0,
#115000
1$
1,
#120000
0$
0,
#125000
1$
1,
#130000
0$
0,
#135000
1$
1,
#140000
0$
0,
#145000
1$
1,
#150000
0$
0,
#155000
1$
1,
1&
b10101011 (
b10101011 0
1.
b11 6
b10001 4
#160000
0$
0,
#165000
1$
1,
b11 5
b10001 2
13
b0 6
b10001 *
1+
#170000
0$
0,
#175000
1$
1,
1!
b0 5
03
b0 2
b1 6
0+
b0 *
#180000
0$
0,
#185000
1$
1,
b1 5
b11 6
#190000
0$
0,
#195000
1$
1,
b11 5
b10001 2
13
b0 6
b10001 *
1+
#200000
0$
0,
#205000
1$
1,
b0 5
03
b0 2
b1 6
0+
b0 *
#210000
0$
0,
#215000
1$
1,
b1 5
b11 6
#220000
0$
0,
#225000
1$
1,
b11 5
b10001 2
13
b0 6
b10001 *
1+
#230000
0$
0,
#235000
1$
1,
1"
b0 5
03
b0 2
b1 6
0+
b0 *
#240000
0$
0,
#245000
1$
1,
1%
b11110000 (
b11011111 )
b1 5
b11011111 1
b11110000 0
1-
b10 6
#250000
0$
0,
#255000
1$
1,
b10 5
13
b0 6
1+
#260000
0$
0,
#265000
1$
1,
1!
b0 5
03
b1 6
0+
#270000
0$
0,
#275000
1$
1,
b1 5
b10 6
#280000
0$
0,
#285000
1$
1,
b10 5
13
b0 6
1+
#290000
0$
0,
#295000
1$
1,
b0 5
03
b1 6
0+
#300000
0$
0,
#305000
1$
1,
b1 5
b10 6
#310000
0$
0,
#315000
1$
1,
b10 5
13
b0 6
1+
#320000
0$
0,
#325000
1$
1,
1"
b0 5
03
b1 6
0+
#330000
0$
0,
#335000
1$
1,
0&
b10110101 (
b110111 )
b1 5
b110111 1
b10110101 0
0.
#340000
0$
0,
#345000
1$
1,
#350000
0$
0,
#355000
1$
1,
1!
#360000
0$
0,
#365000
1$
1,
#370000
0$
0,
#375000
1$
1,
#380000
0$
0,
#385000
1$
1,
#390000
0$
0,
#395000
1$
1,
1"
#400000
0$
0,
#405000
1$
1,
0%
1&
b10011000 (
b10011000 0
1.
0-
b11 6
#410000
0$
0,
#415000
1$
1,
b11 5
b10001 2
13
b0 6
b10001 *
1+
#420000
0$
0,
#425000
1$
1,
1!
b0 5
03
b0 2
b1 6
0+
b0 *
#430000
0$
0,
#435000
1$
1,
b1 5
b11 6
#440000
0$
0,
#445000
1$
1,
b11 5
b10001 2
13
b0 6
b10001 *
1+
#450000
0$
0,
#455000
1$
1,
b0 5
03
b0 2
b1 6
0+
b0 *
#460000
0$
0,
#465000
1$
1,
b1 5
b11 6
#470000
0$
0,
#475000
1$
1,
b11 5
b10001 2
13
b0 6
b10001 *
1+
#480000
0$
0,
#485000
1$
1,
1"
b0 5
03
b0 2
b1 6
0+
b0 *
#490000
0$
0,
#495000
1$
1,
b111010 (
b1 5
b111010 0
b11 6
#500000
0$
0,
#505000
1$
1,
b11 5
b10001 2
13
b0 6
b10001 *
1+
#510000
0$
0,
#515000
1$
1,
1!
b0 5
03
b0 2
b1 6
0+
b0 *
#520000
0$
0,
#525000
1$
1,
b1 5
b11 6
#530000
0$
0,
#535000
1$
1,
b11 5
b10001 2
13
b0 6
b10001 *
1+
#540000
0$
0,
#545000
1$
1,
b0 5
03
b0 2
b1 6
0+
b0 *
#550000
0$
0,
#555000
1$
1,
b1 5
b11 6
#560000
0$
0,
#565000
1$
1,
b11 5
b10001 2
13
b0 6
b10001 *
1+
#570000
0$
0,
#575000
1$
1,
1"
b0 5
03
b0 2
b1 6
0+
b0 *
#580000
0$
0,
#585000
1$
1,
1%
b11001011 (
b11011101 )
b1 5
b11011101 1
b11001011 0
1-
b10 6
#590000
0$
0,
#595000
1$
1,
b10 5
13
b0 6
1+
#600000
0$
0,
#605000
1$
1,
1!
b0 5
03
b1 6
0+
#610000
0$
0,
#615000
1$
1,
b1 5
b10 6
#620000
0$
0,
#625000
1$
1,
b10 5
13
b0 6
1+
#630000
0$
0,
#635000
1$
1,
b0 5
03
b1 6
0+
#640000
0$
0,
#645000
1$
1,
b1 5
b10 6
#650000
0$
0,
#655000
1$
1,
b10 5
13
b0 6
1+
#660000
0$
0,
#665000
1$
1,
1"
b0 5
03
b1 6
0+
#670000
0$
0,
#675000
1$
1,
0%
b1100010 (
b1 5
b1100010 0
0-
b11 6
#680000
0$
0,
#685000
1$
1,
b11 5
b10001 2
13
b0 6
b10001 *
1+
#690000
0$
0,
#695000
1$
1,
1!
b0 5
03
b0 2
b1 6
0+
b0 *
#700000
0$
0,
#705000
1$
1,
b1 5
b11 6
#710000
0$
0,
#715000
1$
1,
b11 5
b10001 2
13
b0 6
b10001 *
1+
#720000
0$
0,
#725000
1$
1,
b0 5
03
b0 2
b1 6
0+
b0 *
#730000
0$
0,
#735000
1$
1,
b1 5
b11 6
#740000
0$
0,
#745000
1$
1,
b11 5
b10001 2
13
b0 6
b10001 *
1+
#750000
0$
0,
#755000
1$
1,
1"
b0 5
03
b0 2
b1 6
0+
b0 *
#760000
0$
0,
#765000
1$
1,
1%
b10001011 (
b1001011 )
b1 5
b1001011 1
b10001011 0
1-
b10 6
#770000
0$
0,
#775000
1$
1,
b10 5
13
b0 6
1+
#780000
0$
0,
#785000
1$
1,
1!
b0 5
03
b1 6
0+
#790000
0$
0,
#795000
1$
1,
b1 5
b10 6
#800000
0$
0,
#805000
1$
1,
b10 5
13
b0 6
1+
#810000
0$
0,
#815000
1$
1,
b0 5
03
b1 6
0+
#820000
0$
0,
#825000
1$
1,
b1 5
b10 6
#830000
0$
0,
#835000
1$
1,
b10 5
13
b0 6
1+
#840000
0$
0,
#845000
1$
1,
1"
b0 5
03
b1 6
0+
#850000
0$
0,
#855000
1$
1,
0%
b10101011 (
b1 5
b10101011 0
0-
b11 6
#860000
0$
0,
#865000
1$
1,
b11 5
b10001 2
13
b0 6
b10001 *
1+
#870000
0$
0,
#875000
1$
1,
1!
b0 5
03
b0 2
b1 6
0+
b0 *
#880000
0$
0,
#885000
1$
1,
b1 5
b11 6
#890000
0$
0,
#895000
1$
1,
b11 5
b10001 2
13
b0 6
b10001 *
1+
#900000
0$
0,
#905000
1$
1,
b0 5
03
b0 2
b1 6
0+
b0 *
#910000
0$
0,
#915000
1$
1,
b1 5
b11 6
#920000
0$
0,
#925000
1$
1,
b11 5
b10001 2
13
b0 6
b10001 *
1+
#930000
0$
0,
#935000
1$
1,
1"
b0 5
03
b0 2
b1 6
0+
b0 *
#940000
0$
0,
#945000
1$
1,
b101110 (
b1 5
b101110 0
b11 6
#950000
0$
0,
#955000
1$
1,
b11 5
b10001 2
13
b0 6
b10001 *
1+
#960000
0$
0,
#965000
1$
1,
1!
b0 5
03
b0 2
b1 6
0+
b0 *
#970000
0$
0,
#975000
1$
1,
b1 5
b11 6
#980000
0$
0,
#985000
1$
1,
b11 5
b10001 2
13
b0 6
b10001 *
1+
#990000
0$
0,
#995000
1$
1,
b0 5
03
b0 2
b1 6
0+
b0 *
#1000000
0$
0,
#1005000
1$
1,
b1 5
b11 6
#1010000
0$
0,
#1015000
1$
1,
b11 5
b10001 2
13
b0 6
b10001 *
1+
#1020000
0$
0,
#1025000
1$
1,
1"
