APB_RAM/result/dump.vcd
$date
Sat Jan  6 08:58:59 2024
$end
$version
Riviera-PRO Version 2022.04.117.8517
$end
$timescale
1 ns
$end

$scope module tb_top $end

$scope module vif $end
$var reg 1 ! presetn $end
$var reg 1 " pclk $end
$var reg 1 # psel $end
$var reg 1 $ penable $end
$var reg 1 % pwrite $end
$var reg 32 & paddr [31:0] $end
$var reg 32 ' pwdata [31:0] $end
$var reg 32 ( prdata [31:0] $end
$var reg 1 ) pready $end
$var reg 1 * pslverr $end
$upscope $end


$scope module dut $end
$var wire 1 + presetn $end
$var wire 1 , pclk $end
$var wire 1 - psel $end
$var wire 1 . penable $end
$var wire 1 / pwrite $end
$var wire 32 0 paddr [31:0] $end
$var wire 32 1 pwdata [31:0] $end
$var reg 32 2 prdata [31:0] $end
$var reg 1 3 pready $end
$var reg 1 4 pslverr $end
$var integer 32 5 state $end
$upscope $end

$upscope $end

$enddefinitions $end
$dumpvars
0!
0"
0#
0$
0%
b0 &
b0 '
bx (
x)
x*
0+
0,
0-
0.
0/
b0 0
b0 1
bx 2
x3
x4
b0 5
$end
#10
1"
1,
b0 2
03
04
b0 (
0)
0*
#20
0"
0,
#30
1"
1,
#40
0"
0,
#50
1"
1,
#60
0"
0,
#70
1"
1,
#80
0"
0,
#90
1"
1,
1!
1+
#100
0"
0,
#110
1"
1,
b1 5
#120
0"
0,
#130
1"
1,
#140
0"
0,
#150
1"
1,
#160
0"
0,
#170
1"
1,
#180
0"
0,
#190
1"
1,
#200
0"
0,
#210
1"
1,
1#
b1110 &
b1110 0
1-
#220
0"
0,
#230
1"
1,
1$
b10 5
13
1)
1.
#240
0"
0,
#250
1"
1,
0$
0#
b11 5
0-
0.
#260
0"
0,
#270
1"
1,
b1 5
03
0)
#280
0"
0,
#290
1"
1,
#300
0"
0,
#310
1"
1,
1#
1%
b1010 &
b100011100110 '
b100011100110 1
b1010 0
1/
1-
#320
0"
0,
#330
1"
1,
1$
b10 5
13
1)
1.
#340
0"
0,
#350
1"
1,
0$
0#
0%
b11 5
0/
0-
0.
#360
0"
0,
#370
1"
1,
b1 5
03
0)
#380
0"
0,
#390
1"
1,
1#
b110011 &
b1001011111 '
b1001011111 1
b110011 0
1-
#400
0"
0,
#410
1"
1,
1$
b10 5
1.
#420
0"
0,
#430
1"
1,
0$
0#
b11 5
13
14
bx 2
1)
1*
bx (
0-
0.
#440
0"
0,
#450
1"
1,
b1 5
03
04
0)
0*
#460
0"
0,
#470
1"
1,
#480
0"
0,
#490
1"
1,
1#
b10111 &
b100010001010 '
b100010001010 1
b10111 0
1-
#500
0"
0,
#510
1"
1,
1$
b10 5
13
1)
1.
#520
0"
0,
#530
1"
1,
0$
0#
b0 2
b11 5
b0 (
0-
0.
#540
0"
0,
#550
1"
1,
b1 5
03
0)
#560
0"
0,
#570
1"
1,
#580
0"
0,
#590
1"
1,
1#
b10011 &
b10011 0
1-
#600
0"
0,
#610
1"
1,
1$
b10 5
13
1)
1.
#620
0"
0,
#630
1"
1,
0$
0#
b11 5
0-
0.
#640
0"
0,
#650
1"
1,
b1 5
03
0)
